main_proj/DE2_Default/simulation/qsim/DE2_Default.msim.vcd
$comment
	File created using the following command:
		vcd file DE2_Default.msim.vcd -direction
$end
$date
	Sat Jan 07 12:40:43 2023
$end
$version
	ModelSim Version 10.1d
$end
$timescale
	1ps
$end
$scope module PWM_vlg_vec_tst $end
$var reg 1 ! clk $end
$var wire 1 " out $end
$var wire 1 # sampler $end
$scope module i1 $end
$var wire 1 $ gnd $end
$var wire 1 % vcc $end
$var wire 1 & unknown $end
$var tri1 1 ' devclrn $end
$var tri1 1 ( devpor $end
$var tri1 1 ) devoe $end
$var wire 1 * Add0~0_combout $end
$var wire 1 + Add0~12_combout $end
$var wire 1 , Add0~38_combout $end
$var wire 1 - Add0~44_combout $end
$var wire 1 . Add0~52_combout $end
$var wire 1 / Equal0~2_combout $end
$var wire 1 0 LessThan0~0_combout $end
$var wire 1 1 LessThan0~1_combout $end
$var wire 1 2 Equal0~7_combout $end
$var wire 1 3 cnt~5_combout $end
$var wire 1 4 clk~combout $end
$var wire 1 5 clk~clkctrl_outclk $end
$var wire 1 6 Add0~29 $end
$var wire 1 7 Add0~30_combout $end
$var wire 1 8 Add0~31 $end
$var wire 1 9 Add0~32_combout $end
$var wire 1 : Add0~33 $end
$var wire 1 ; Add0~34_combout $end
$var wire 1 < Add0~35 $end
$var wire 1 = Add0~36_combout $end
$var wire 1 > Add0~37 $end
$var wire 1 ? Add0~39 $end
$var wire 1 @ Add0~40_combout $end
$var wire 1 A Add0~41 $end
$var wire 1 B Add0~43 $end
$var wire 1 C Add0~45 $end
$var wire 1 D Add0~46_combout $end
$var wire 1 E Add0~47 $end
$var wire 1 F Add0~49 $end
$var wire 1 G Add0~50_combout $end
$var wire 1 H Add0~51 $end
$var wire 1 I Add0~53 $end
$var wire 1 J Add0~54_combout $end
$var wire 1 K Add0~55 $end
$var wire 1 L Add0~57 $end
$var wire 1 M Add0~58_combout $end
$var wire 1 N Add0~59 $end
$var wire 1 O Add0~60_combout $end
$var wire 1 P Add0~61 $end
$var wire 1 Q Add0~62_combout $end
$var wire 1 R Equal0~0_combout $end
$var wire 1 S Add0~1 $end
$var wire 1 T Add0~2_combout $end
$var wire 1 U Add0~3 $end
$var wire 1 V Add0~4_combout $end
$var wire 1 W Add0~5 $end
$var wire 1 X Add0~6_combout $end
$var wire 1 Y cnt~4_combout $end
$var wire 1 Z Add0~7 $end
$var wire 1 [ Add0~8_combout $end
$var wire 1 \ Add0~9 $end
$var wire 1 ] Add0~11 $end
$var wire 1 ^ Add0~13 $end
$var wire 1 _ Add0~14_combout $end
$var wire 1 ` cnt~2_combout $end
$var wire 1 a Add0~15 $end
$var wire 1 b Add0~16_combout $end
$var wire 1 c cnt~3_combout $end
$var wire 1 d Add0~17 $end
$var wire 1 e Add0~18_combout $end
$var wire 1 f cnt~1_combout $end
$var wire 1 g Add0~19 $end
$var wire 1 h Add0~20_combout $end
$var wire 1 i Add0~21 $end
$var wire 1 j Add0~22_combout $end
$var wire 1 k Equal0~8_combout $end
$var wire 1 l Add0~10_combout $end
$var wire 1 m Equal0~6_combout $end
$var wire 1 n Equal0~9_combout $end
$var wire 1 o Add0~23 $end
$var wire 1 p Add0~24_combout $end
$var wire 1 q cnt~0_combout $end
$var wire 1 r Add0~25 $end
$var wire 1 s Add0~26_combout $end
$var wire 1 t Add0~27 $end
$var wire 1 u Add0~28_combout $end
$var wire 1 v Equal0~1_combout $end
$var wire 1 w Add0~56_combout $end
$var wire 1 x Equal0~4_combout $end
$var wire 1 y Add0~48_combout $end
$var wire 1 z Add0~42_combout $end
$var wire 1 { Equal0~3_combout $end
$var wire 1 | Equal0~5_combout $end
$var wire 1 } LessThan0~2_combout $end
$var wire 1 ~ LessThan0~3_combout $end
$var wire 1 !! cnt [31] $end
$var wire 1 "! cnt [30] $end
$var wire 1 #! cnt [29] $end
$var wire 1 $! cnt [28] $end
$var wire 1 %! cnt [27] $end
$var wire 1 &! cnt [26] $end
$var wire 1 '! cnt [25] $end
$var wire 1 (! cnt [24] $end
$var wire 1 )! cnt [23] $end
$var wire 1 *! cnt [22] $end
$var wire 1 +! cnt [21] $end
$var wire 1 ,! cnt [20] $end
$var wire 1 -! cnt [19] $end
$var wire 1 .! cnt [18] $end
$var wire 1 /! cnt [17] $end
$var wire 1 0! cnt [16] $end
$var wire 1 1! cnt [15] $end
$var wire 1 2! cnt [14] $end
$var wire 1 3! cnt [13] $end
$var wire 1 4! cnt [12] $end
$var wire 1 5! cnt [11] $end
$var wire 1 6! cnt [10] $end
$var wire 1 7! cnt [9] $end
$var wire 1 8! cnt [8] $end
$var wire 1 9! cnt [7] $end
$var wire 1 :! cnt [6] $end
$var wire 1 ;! cnt [5] $end
$var wire 1 <! cnt [4] $end
$var wire 1 =! cnt [3] $end
$var wire 1 >! cnt [2] $end
$var wire 1 ?! cnt [1] $end
$var wire 1 @! cnt [0] $end
$upscope $end
$upscope $end
$enddefinitions $end
#0
$dumpvars
0!
x"
x#
0$
1%
x&
1'
1(
1)
x*
x+
x,
x-
x.
x/
x0
x1
x2
x3
04
x5
x6
x7
x8
x9
x:
x;
x<
x=
x>
x?
x@
xA
xB
xC
xD
xE
xF
xG
xH
xI
xJ
xK
xL
xM
xN
xO
xP
xQ
xR
xS
xT
xU
xV
xW
xX
xY
xZ
x[
x\
x]
x^
x_
x`
xa
xb
xc
xd
xe
xf
xg
xh
xi
xj
xk
xl
xm
xn
xo
xp
xq
xr
xs
xt
xu
xv
xw
xx
xy
xz
x{
x|
x}
x~
0@!
0?!
0>!
0=!
0<!
0;!
0:!
09!
08!
07!
06!
05!
04!
03!
02!
01!
00!
0/!
0.!
0-!
0,!
0+!
0*!
0)!
0(!
0'!
0&!
0%!
0$!
0#!
0"!
0!!
$end
#118
05
#598
01
#665
0}
#700
0:
#705
1U
#706
1o
0W
#707
0\
#710
1<
#711
06
1t
0P
1N
1K
1H
0A
0>
#721
0n
#737
02
#740
0i
0k
#743
1]
0^
#746
0F
0L
0S
0I
1?
#747
1B
0C
#762
0m
#770
1*
#803
1E
18
#851
0d
#875
1R
#890
1Z
#891
1g
#894
0r
#918
1/
#930
10
#982
1a
#999
1x
#1009
1{
#1065
1v
#1110
0;
#1115
0V
#1116
0X
0p
#1117
0l
#1120
0=
#1121
0,
0z
0.
0w
0O
0Q
0u
07
#1150
0j
#1153
0_
0+
#1156
0@
0J
0T
0M
0G
#1157
0D
0-
#1213
09
0y
#1261
0e
#1300
0[
#1301
0h
#1304
0s
#1392
0b
#1653
13
#1704
0q
#1753
0`
#1861
1|
#1962
0Y
#2011
0c
#2203
0f
#2613
1~
#5000
1!
0#
#5999
14
#6117
15
#6363
1"
#7927
1@!
#8673
1S
#8697
0*
#9083
1T
#9580
03
#10000
0!
1#
#10999
04
#11117
05
#15000
1!
0#
#15999
14
#16117
15
#17927
0@!
1?!
#18632
0U
#18659
0T
#18673
0S
#18697
1*
#18744
1U
#19083
1T
#19580
13
#20000
0!
1#
#20999
04
#21117
05
#25000
1!
0#
#25999
14
#26117
15
#27927
1@!
#28673
1S
#28697
0*
#28744
0U
#29083
0T
#29154
1V
#29580
03
#30000
0!
1#
#30999
04
#31117
05
#35000
1!
0#
#35999
14
#36117
15
#37927
0@!
0?!
1>!
#38632
1U
#38659
1T
#38673
0S
#38697
1*
#38707
00
#39083
0T
#39580
13
#40000
0!
1#
#40999
04
#41117
05
#45000
1!
0#
#45999
14
#46117
15
#47927
1@!
#48673
1S
#48697
0*
#49083
1T
#49580
03
#50000
0!
1#
#50999
04
#51117
05
#55000
1!
0#
#55999
14
#56117
15
#57927
0@!
1?!
#58632
0U
#58659
0T
#58673
0S
#58697
1*
#58703
1W
#58744
1U
#58815
0W
#59083
1T
#59580
13
#60000
0!
1#
#60999
04
#61117
05
#65000
1!
0#
#65999
14
#66117
15
#67927
1@!
#68673
1S
#68697
0*
#68744
0U
#68815
1W
#69083
0T
#69154
0V
#69225
1X
#69580
03
#70000
0!
1#
#70071
1Y
#70999
04
#71117
05
#75000
1!
0#
#75999
14
#76117
15
#77927
0@!
0?!
0>!
1=!
#78632
1U
#78633
0W
#78659
1T
#78673
0S
#78697
1*
#78707
1m
#79083
0T
#79580
13
#80000
0!
1#
#80999
04
#81117
05
#85000
1!
0#
#85999
14
#86117
15
#87927
1@!
#88673
1S
#88697
0*
#89083
1T
#89580
03
#90000
0!
1#
#90999
04
#91117
05
#95000
1!
0#
#95999
14
#96117
15
#97927
0@!
1?!
#98632
0U
#98659
0T
#98673
0S
#98697
1*
#98744
1U
#99083
1T
#99580
13
#100000
0!
1#
#100999
04
#101117
05
#105000
1!
0#
#105999
14
#106117
15
#107927
1@!
#108673
1S
#108697
0*
#108744
0U
#109083
0T
#109154
1V
#109580
03
#110000
0!
1#
#110999
04
#111117
05
#115000
1!
0#
#115999
14
#116117
15
#117927
0@!
0?!
1>!
#118632
1U
#118659
1T
#118673
0S
#118697
1*
#118707
0m
#119083
0T
#119580
13
#120000
0!
1#
#120999
04
#121117
05
#125000
1!
0#
#125999
14
#126117
15
#127927
1@!
#128673
1S
#128697
0*
#129083
1T
#129580
03
#130000
0!
1#
#130999
04
#131117
05
#135000
1!
0#
#135999
14
#136117
15
#137927
0@!
1?!
#138632
0U
#138659
0T
#138673
0S
#138697
1*
#138703
1W
#138744
1U
#138774
0Z
#138815
0W
#138886
1Z
#139083
1T
#139580
13
#140000
0!
1#
#140999
04
#141117
05
#145000
1!
0#
#145999
14
#146117
15
#147927
1@!
#148673
1S
#148697
0*
#148744
0U
#148815
1W
#148886
0Z
#149083
0T
#149154
0V
#149225
0X
#149296
1[
#149580
03
#150000
0!
1#
#150071
0Y
#150999
04
#151117
05
#155000
1!
0#
#155999
14
#156117
15
#157927
0@!
0?!
0>!
0=!
1<!
#158632
1U
#158633
0W
#158634
1\
#158659
1T
#158661
0[
#158673
0S
#158697
1*
#158817
1Z
#158888
0\
#159083
0T
#159227
1[
#159580
13
#160000
0!
1#
#160999
04
#161117
05
#165000
1!
0#
#165999
14
#166117
15
#167927
1@!
#168673
1S
#168697
0*
#169083
1T
#169580
03
#170000
0!
1#
#170999
04
#171117
05
#175000
1!
0#
#175999
14
#176117
15
#177927
0@!
1?!
#178632
0U
#178659
0T
#178673
0S
#178697
1*
#178744
1U
#179083
1T
#179580
13
#180000
0!
1#
#180999
04
#181117
05
#185000
1!
0#
#185999
14
#186117
15
#187927
1@!
#188673
1S
#188697
0*
#188744
0U
#189083
0T
#189154
1V
#189580
03
#190000
0!
1#
#190999
04
#191117
05
#195000
1!
0#
#195999
14
#196117
15
#197927
0@!
0?!
1>!
#198632
1U
#198659
1T
#198673
0S
#198697
1*
#199083
0T
#199580
13
#200000
0!
1#
#200999
04
#201117
05
#205000
1!
0#
#205999
14
#206117
15
#207927
1@!
#208673
1S
#208697
0*
#209083
1T
#209580
03
#210000
0!
1#
#210999
04
#211117
05
#215000
1!
0#
#215999
14
#216117
15
#217927
0@!
1?!
#218632
0U
#218659
0T
#218673
0S
#218697
1*
#218703
1W
#218744
1U
#218815
0W
#219083
1T
#219580
13
#220000
0!
1#
#220999
04
#221117
05
#225000
1!
0#
#225999
14
#226117
15
#227927
1@!
#228673
1S
#228697
0*
#228744
0U
#228815
1W
#229083
0T
#229154
0V
#229225
1X
#229580
03
#230000
0!
1#
#230071
1Y
#230999
04
#231117
05
#235000
1!
0#
#235999
14
#236117
15
#237927
0@!
0?!
0>!
1=!
#238632
1U
#238633
0W
#238659
1T
#238673
0S
#238697
1*
#239083
0T
#239580
13
#240000
0!
1#
#240999
04
#241117
05
#245000
1!
0#
#245999
14
#246117
15
#247927
1@!
#248673
1S
#248697
0*
#249083
1T
#249580
03
#250000
0!
1#
#250999
04
#251117
05
#255000
1!
0#
#255999
14
#256117
15
#257927
0@!
1?!
#258632
0U
#258659
0T
#258673
0S
#258697
1*
#258744
1U
#259083
1T
#259580
13
#260000
0!
1#
#260999
04
#261117
05
#265000
1!
0#
#265999
14
#266117
15
#267927
1@!
#268673
1S
#268697
0*
#268744
0U
#269083
0T
#269154
1V
#269580
03
#270000
0!
1#
#270999
04
#271117
05
#275000
1!
0#
#275999
14
#276117
15
#277927
0@!
0?!
1>!
#278632
1U
#278659
1T
#278673
0S
#278697
1*
#279083
0T
#279580
13
#280000
0!
1#
#280999
04
#281117
05
#285000
1!
0#
#285999
14
#286117
15
#287927
1@!
#288673
1S
#288697
0*
#289083
1T
#289580
03
#290000
0!
1#
#290999
04
#291117
05
#295000
1!
0#
#295999
14
#296117
15
#297927
0@!
1?!
#298632
0U
#298659
0T
#298673
0S
#298697
1*
#298703
1W
#298744
1U
#298774
0Z
#298815
0W
#298845
1\
#298886
1Z
#298957
0\
#299083
1T
#299580
13
#300000
0!
1#
#300999
04
#301117
05
#305000
1!
0#
#305999
14
#306117
15
#307927
1@!
#308673
1S
#308697
0*
#308744
0U
#308815
1W
#308886
0Z
#308957
1\
#309083
0T
#309154
0V
#309225
0X
#309296
0[
#309367
1l
#309580
03
#310000
0!
1#
#310071
0Y
#310999
04
#311117
05
#315000
1!
0#
#315999
14
#316117
15
#317927
0@!
0?!
0>!
0=!
0<!
1;!
#318632
1U
#318633
0W
#318634
0\
#318659
1T
#318661
1[
#318673
0S
#318697
1*
#318817
1Z
#319083
0T
#319227
0[
#319580
13
#320000
0!
1#
#320999
04
#321117
05
#325000
1!
0#
#325999
14
#326117
15
#327927
1@!
#328673
1S
#328697
0*
#329083
1T
#329580
03
#330000
0!
1#
#330999
04
#331117
05
#335000
1!
0#
#335999
14
#336117
15
#337927
0@!
1?!
#338632
0U
#338659
0T
#338673
0S
#338697
1*
#338744
1U
#339083
1T
#339580
13
#340000
0!
1#
#340999
04
#341117
05
#345000
1!
0#
#345999
14
#346117
15
#347927
1@!
#348673
1S
#348697
0*
#348744
0U
#349083
0T
#349154
1V
#349580
03
#350000
0!
1#
#350999
04
#351117
05
#355000
1!
0#
#355999
14
#356117
15
#357927
0@!
0?!
1>!
#358632
1U
#358659
1T
#358673
0S
#358697
1*
#359083
0T
#359580
13
#360000
0!
1#
#360999
04
#361117
05
#365000
1!
0#
#365999
14
#366117
15
#367927
1@!
#368673
1S
#368697
0*
#369083
1T
#369580
03
#370000
0!
1#
#370999
04
#371117
05
#375000
1!
0#
#375999
14
#376117
15
#377927
0@!
1?!
#378632
0U
#378659
0T
#378673
0S
#378697
1*
#378703
1W
#378744
1U
#378815
0W
#379083
1T
#379580
13
#380000
0!
1#
#380999
04
#381117
05
#385000
1!
0#
#385999
14
#386117
15
#387927
1@!
#388673
1S
#388697
0*
#388744
0U
#388815
1W
#389083
0T
#389154
0V
#389225
1X
#389580
03
#390000
0!
1#
#390071
1Y
#390999
04
#391117
05
#395000
1!
0#
#395999
14
#396117
15
#397927
0@!
0?!
0>!
1=!
#398632
1U
#398633
0W
#398659
1T
#398673
0S
#398697
1*
#399083
0T
#399580
13
#400000
0!
1#
#400999
04
#401117
05
#405000
1!
0#
#405999
14
#406117
15
#407927
1@!
#408673
1S
#408697
0*
#409083
1T
#409580
03
#410000
0!
1#
#410999
04
#411117
05
#415000
1!
0#
#415999
14
#416117
15
#417927
0@!
1?!
#418632
0U
#418659
0T
#418673
0S
#418697
1*
#418744
1U
#419083
1T
#419580
13
#420000
0!
1#
#420999
04
#421117
05
#425000
1!
0#
#425999
14
#426117
15
#427927
1@!
#428673
1S
#428697
0*
#428744
0U
#429083
0T
#429154
1V
#429580
03
#430000
0!
1#
#430999
04
#431117
05
#435000
1!
0#
#435999
14
#436117
15
#437927
0@!
0?!
1>!
#438632
1U
#438659
1T
#438673
0S
#438697
1*
#439083
0T
#439580
13
#440000
0!
1#
#440999
04
#441117
05
#445000
1!
0#
#445999
14
#446117
15
#447927
1@!
#448673
1S
#448697
0*
#449083
1T
#449580
03
#450000
0!
1#
#450999
04
#451117
05
#455000
1!
0#
#455999
14
#456117
15
#457927
0@!
1?!
#458632
0U
#458659
0T
#458673
0S
#458697
1*
#458703
1W
#458744
1U
#458774
0Z
#458815
0W
#458886
1Z
#459083
1T
#459580
13
#460000
0!
1#
#460999
04
#461117
05
#465000
1!
0#
#465999
14
#466117
15
#467927
1@!
#468673
1S
#468697
0*
#468744
0U
#468815
1W
#468886
0Z
#469083
0T
#469154
0V
#469225
0X
#469296
1[
#469580
03
#470000
0!
1#
#470071
0Y
#470999
04
#471117
05
#475000
1!
0#
#475999
14
#476117
15
#477927
0@!
0?!
0>!
0=!
1<!
#478632
1U
#478633
0W
#478634
1\
#478659
1T
#478661
0[
#478673
0S
#478697
1*
#478705
0]
#478817
1Z
#478888
0\
#478959
1]
#479083
0T
#479227
1[
#479580
13
#480000
0!
1#
#480999
04
#481117
05
#485000
1!
0#
#485999
14
#486117
15
#487927
1@!
#488673
1S
#488697
0*
#489083
1T
#489580
03
#490000
0!
1#
#490999
04
#491117
05
#495000
1!
0#
#495999
14
#496117
15
#497927
0@!
1?!
#498632
0U
#498659
0T
#498673
0S
#498697
1*
#498744
1U
#499083
1T
#499580
13
#500000
0!
1#
#500999
04
#501117
05
#505000
1!
0#
#505999
14
#506117
15
#507927
1@!
#508673
1S
#508697
0*
#508744
0U
#509083
0T
#509154
1V
#509580
03
#510000
0!
1#
#510999
04
#511117
05
#515000
1!
0#
#515999
14
#516117
15
#517927
0@!
0?!
1>!
#518632
1U
#518659
1T
#518673
0S
#518697
1*
#519083
0T
#519580
13
#520000
0!
1#
#520999
04
#521117
05
#525000
1!
0#
#525999
14
#526117
15
#527927
1@!
#528673
1S
#528697
0*
#529083
1T
#529580
03
#530000
0!
1#
#530999
04
#531117
05
#535000
1!
0#
#535999
14
#536117
15
#537927
0@!
1?!
#538632
0U
#538659
0T
#538673
0S
#538697
1*
#538703
1W
#538744
1U
#538815
0W
#539083
1T
#539580
13
#540000
0!
1#
#540999
04
#541117
05
#545000
1!
0#
#545999
14
#546117
15
#547927
1@!
#548673
1S
#548697
0*
#548744
0U
#548815
1W
#549083
0T
#549154
0V
#549225
1X
#549580
03
#550000
0!
1#
#550071
1Y
#550999
04
#551117
05
#555000
1!
0#
#555999
14
#556117
15
#557927
0@!
0?!
0>!
1=!
#558632
1U
#558633
0W
#558659
1T
#558673
0S
#558697
1*
#559083
0T
#559580
13
#560000
0!
1#
#560999
04
#561117
05
#565000
1!
0#
#565999
14
#566117
15
#567927
1@!
#568673
1S
#568697
0*
#569083
1T
#569580
03
#570000
0!
1#
#570999
04
#571117
05
#575000
1!
0#
#575999
14
#576117
15
#577927
0@!
1?!
#578632
0U
#578659
0T
#578673
0S
#578697
1*
#578744
1U
#579083
1T
#579580
13
#580000
0!
1#
#580999
04
#581117
05
#585000
1!
0#
#585999
14
#586117
15
#587927
1@!
#588673
1S
#588697
0*
#588744
0U
#589083
0T
#589154
1V
#589580
03
#590000
0!
1#
#590999
04
#591117
05
#595000
1!
0#
#595999
14
#596117
15
#597927
0@!
0?!
1>!
#598632
1U
#598659
1T
#598673
0S
#598697
1*
#599083
0T
#599580
13
#600000
0!
1#
#600999
04
#601117
05
#605000
1!
0#
#605999
14
#606117
15
#607927
1@!
#608673
1S
#608697
0*
#609083
1T
#609580
03
#610000
0!
1#
#610999
04
#611117
05
#615000
1!
0#
#615999
14
#616117
15
#617927
0@!
1?!
#618632
0U
#618659
0T
#618673
0S
#618697
1*
#618703
1W
#618744
1U
#618774
0Z
#618815
0W
#618845
1\
#618886
1Z
#618916
0]
#618957
0\
#619028
1]
#619083
1T
#619580
13
#620000
0!
1#
#620999
04
#621117
05
#625000
1!
0#
#625999
14
#626117
15
#627927
1@!
#628673
1S
#628697
0*
#628744
0U
#628815
1W
#628886
0Z
#628957
1\
#629028
0]
#629083
0T
#629154
0V
#629225
0X
#629296
0[
#629367
0l
#629438
1+
#629580
03
#630000
0!
1#
#630071
0Y
#630999
04
#631117
05
#635000
1!
0#
#635999
14
#636117
15
#637927
1:!
0@!
0?!
0>!
0=!
0<!
0;!
#638632
1U
#638633
0W
#638634
0\
#638659
1T
#638661
1[
#638670
1^
1]
#638673
0S
#638697
1*
#638741
0^
#638817
1Z
#638857
10
#639083
0T
#639227
0[
#639580
13
#640000
0!
1#
#640999
04
#641117
05
#645000
1!
0#
#645999
14
#646117
15
#647927
1@!
#648673
1S
#648697
0*
#649083
1T
#649580
03
#650000
0!
1#
#650999
04
#651117
05
#655000
1!
0#
#655999
14
#656117
15
#657927
0@!
1?!
#658632
0U
#658659
0T
#658673
0S
#658697
1*
#658744
1U
#659083
1T
#659580
13
#660000
0!
1#
#660999
04
#661117
05
#665000
1!
0#
#665999
14
#666117
15
#667927
1@!
#668673
1S
#668697
0*
#668744
0U
#669083
0T
#669154
1V
#669580
03
#670000
0!
1#
#670999
04
#671117
05
#675000
1!
0#
#675999
14
#676117
15
#677927
0@!
0?!
1>!
#678632
1U
#678659
1T
#678673
0S
#678697
1*
#678707
00
#679083
0T
#679580
13
#680000
0!
1#
#680999
04
#681117
05
#685000
1!
0#
#685999
14
#686117
15
#687927
1@!
#688673
1S
#688697
0*
#689083
1T
#689580
03
#690000
0!
1#
#690999
04
#691117
05
#695000
1!
0#
#695999
14
#696117
15
#697927
0@!
1?!
#698632
0U
#698659
0T
#698673
0S
#698697
1*
#698703
1W
#698744
1U
#698815
0W
#699083
1T
#699580
13
#700000
0!
1#
#700999
04
#701117
05
#705000
1!
0#
#705999
14
#706117
15
#707927
1@!
#708673
1S
#708697
0*
#708744
0U
#708815
1W
#709083
0T
#709154
0V
#709225
1X
#709580
03
#710000
0!
1#
#710071
1Y
#710999
04
#711117
05
#715000
1!
0#
#715999
14
#716117
15
#717927
0@!
0?!
0>!
1=!
#718632
1U
#718633
0W
#718659
1T
#718673
0S
#718697
1*
#718707
1m
#719083
0T
#719580
13
#720000
0!
1#
#720999
04
#721117
05
#725000
1!
0#
#725999
14
#726117
15
#727927
1@!
#728673
1S
#728697
0*
#729083
1T
#729580
03
#730000
0!
1#
#730999
04
#731117
05
#735000
1!
0#
#735999
14
#736117
15
#737927
0@!
1?!
#738632
0U
#738659
0T
#738673
0S
#738697
1*
#738744
1U
#739083
1T
#739580
13
#740000
0!
1#
#740999
04
#741117
05
#745000
1!
0#
#745999
14
#746117
15
#747927
1@!
#748673
1S
#748697
0*
#748744
0U
#749083
0T
#749154
1V
#749580
03
#750000
0!
1#
#750999
04
#751117
05
#755000
1!
0#
#755999
14
#756117
15
#757927
0@!
0?!
1>!
#758632
1U
#758659
1T
#758673
0S
#758697
1*
#758707
0m
#759083
0T
#759580
13
#760000
0!
1#
#760999
04
#761117
05
#765000
1!
0#
#765999
14
#766117
15
#767927
1@!
#768673
1S
#768697
0*
#769083
1T
#769580
03
#770000
0!
1#
#770999
04
#771117
05
#775000
1!
0#
#775999
14
#776117
15
#777927
0@!
1?!
#778632
0U
#778659
0T
#778673
0S
#778697
1*
#778703
1W
#778744
1U
#778774
0Z
#778815
0W
#778886
1Z
#779083
1T
#779580
13
#780000
0!
1#
#780999
04
#781117
05
#785000
1!
0#
#785999
14
#786117
15
#787927
1@!
#788673
1S
#788697
0*
#788744
0U
#788815
1W
#788886
0Z
#789083
0T
#789154
0V
#789225
0X
#789296
1[
#789580
03
#790000
0!
1#
#790071
0Y
#790999
04
#791117
05
#795000
1!
0#
#795999
14
#796117
15
#797927
0@!
0?!
0>!
0=!
1<!
#798632
1U
#798633
0W
#798634
1\
#798659
1T
#798661
0[
#798673
0S
#798697
1*
#798817
1Z
#798888
0\
#799083
0T
#799227
1[
#799580
13
#800000
0!
1#
#800999
04
#801117
05
#805000
1!
0#
#805999
14
#806117
15
#807927
1@!
#808673
1S
#808697
0*
#809083
1T
#809580
03
#810000
0!
1#
#810999
04
#811117
05
#815000
1!
0#
#815999
14
#816117
15
#817927
0@!
1?!
#818632
0U
#818659
0T
#818673
0S
#818697
1*
#818744
1U
#819083
1T
#819580
13
#820000
0!
1#
#820999
04
#821117
05
#825000
1!
0#
#825999
14
#826117
15
#827927
1@!
#828673
1S
#828697
0*
#828744
0U
#829083
0T
#829154
1V
#829580
03
#830000
0!
1#
#830999
04
#831117
05
#835000
1!
0#
#835999
14
#836117
15
#837927
0@!
0?!
1>!
#838632
1U
#838659
1T
#838673
0S
#838697
1*
#839083
0T
#839580
13
#840000
0!
1#
#840999
04
#841117
05
#845000
1!
0#
#845999
14
#846117
15
#847927
1@!
#848673
1S
#848697
0*
#849083
1T
#849580
03
#850000
0!
1#
#850999
04
#851117
05
#855000
1!
0#
#855999
14
#856117
15
#857927
0@!
1?!
#858632
0U
#858659
0T
#858673
0S
#858697
1*
#858703
1W
#858744
1U
#858815
0W
#859083
1T
#859580
13
#860000
0!
1#
#860999
04
#861117
05
#865000
1!
0#
#865999
14
#866117
15
#867927
1@!
#868673
1S
#868697
0*
#868744
0U
#868815
1W
#869083
0T
#869154
0V
#869225
1X
#869580
03
#870000
0!
1#
#870071
1Y
#870999
04
#871117
05
#875000
1!
0#
#875999
14
#876117
15
#877927
0@!
0?!
0>!
1=!
#878632
1U
#878633
0W
#878659
1T
#878673
0S
#878697
1*
#879083
0T
#879580
13
#880000
0!
1#
#880999
04
#881117
05
#885000
1!
0#
#885999
14
#886117
15
#887927
1@!
#888673
1S
#888697
0*
#889083
1T
#889580
03
#890000
0!
1#
#890999
04
#891117
05
#895000
1!
0#
#895999
14
#896117
15
#897927
0@!
1?!
#898632
0U
#898659
0T
#898673
0S
#898697
1*
#898744
1U
#899083
1T
#899580
13
#900000
0!
1#
#900999
04
#901117
05
#905000
1!
0#
#905999
14
#906117
15
#907927
1@!
#908673
1S
#908697
0*
#908744
0U
#909083
0T
#909154
1V
#909580
03
#910000
0!
1#
#910999
04
#911117
05
#915000
1!
0#
#915999
14
#916117
15
#917927
0@!
0?!
1>!
#918632
1U
#918659
1T
#918673
0S
#918697
1*
#919083
0T
#919580
13
#920000
0!
1#
#920999
04
#921117
05
#925000
1!
0#
#925999
14
#926117
15
#927927
1@!
#928673
1S
#928697
0*
#929083
1T
#929580
03
#930000
0!
1#
#930999
04
#931117
05
#935000
1!
0#
#935999
14
#936117
15
#937927
0@!
1?!
#938632
0U
#938659
0T
#938673
0S
#938697
1*
#938703
1W
#938744
1U
#938774
0Z
#938815
0W
#938845
1\
#938886
1Z
#938957
0\
#939083
1T
#939580
13
#940000
0!
1#
#940999
04
#941117
05
#945000
1!
0#
#945999
14
#946117
15
#947927
1@!
#948673
1S
#948697
0*
#948744
0U
#948815
1W
#948886
0Z
#948957
1\
#949083
0T
#949154
0V
#949225
0X
#949296
0[
#949367
1l
#949580
03
#950000
0!
1#
#950071
0Y
#950999
04
#951117
05
#955000
1!
0#
#955999
14
#956117
15
#957927
0@!
0?!
0>!
0=!
0<!
1;!
#958632
1U
#958633
0W
#958634
0\
#958659
1T
#958661
1[
#958673
0S
#958697
1*
#958817
1Z
#959083
0T
#959227
0[
#959580
13
#960000
0!
1#
#960999
04
#961117
05
#965000
1!
0#
#965999
14
#966117
15
#967927
1@!
#968673
1S
#968697
0*
#969083
1T
#969580
03
#970000
0!
1#
#970999
04
#971117
05
#975000
1!
0#
#975999
14
#976117
15
#977927
0@!
1?!
#978632
0U
#978659
0T
#978673
0S
#978697
1*
#978744
1U
#979083
1T
#979580
13
#980000
0!
1#
#980999
04
#981117
05
#985000
1!
0#
#985999
14
#986117
15
#987927
1@!
#988673
1S
#988697
0*
#988744
0U
#989083
0T
#989154
1V
#989580
03
#990000
0!
1#
#990999
04
#991117
05
#995000
1!
0#
#995999
14
#996117
15
#997927
0@!
0?!
1>!
#998632
1U
#998659
1T
#998673
0S
#998697
1*
#999083
0T
#999580
13
