main_proj/DE2_Default/simulation/qsim/DE2_Default.msim.vcd
$comment
	File created using the following command:
		vcd file DE2_Default.msim.vcd -direction
$end
$date
	Sat Jan 07 12:04:31 2023
$end
$version
	ModelSim Version 10.1d
$end
$timescale
	1ps
$end
$scope module DE2_Default_vlg_vec_tst $end
$var reg 1 ! CLOCK_50 $end
$var wire 1 " LEDR [17] $end
$var wire 1 # LEDR [16] $end
$var wire 1 $ LEDR [15] $end
$var wire 1 % LEDR [14] $end
$var wire 1 & LEDR [13] $end
$var wire 1 ' LEDR [12] $end
$var wire 1 ( LEDR [11] $end
$var wire 1 ) LEDR [10] $end
$var wire 1 * LEDR [9] $end
$var wire 1 + LEDR [8] $end
$var wire 1 , LEDR [7] $end
$var wire 1 - LEDR [6] $end
$var wire 1 . LEDR [5] $end
$var wire 1 / LEDR [4] $end
$var wire 1 0 LEDR [3] $end
$var wire 1 1 LEDR [2] $end
$var wire 1 2 LEDR [1] $end
$var wire 1 3 LEDR [0] $end
$scope module i1 $end
$var wire 1 4 gnd $end
$var wire 1 5 vcc $end
$var wire 1 6 unknown $end
$var tri1 1 7 devclrn $end
$var tri1 1 8 devpor $end
$var tri1 1 9 devoe $end
$var wire 1 : Add0~0_combout $end
$var wire 1 ; Add0~10_combout $end
$var wire 1 < Add0~12_combout $end
$var wire 1 = Add0~16_combout $end
$var wire 1 > Add0~44_combout $end
$var wire 1 ? Add0~61 $end
$var wire 1 @ Add0~62_combout $end
$var wire 1 A Equal0~1_combout $end
$var wire 1 B Cont~1_combout $end
$var wire 1 C Cont~10_combout $end
$var wire 1 D CLOCK_50~combout $end
$var wire 1 E CLOCK_50~clkctrl_outclk $end
$var wire 1 F Add0~1 $end
$var wire 1 G Add0~2_combout $end
$var wire 1 H Add0~3 $end
$var wire 1 I Add0~4_combout $end
$var wire 1 J Add0~5 $end
$var wire 1 K Add0~6_combout $end
$var wire 1 L Equal0~2_combout $end
$var wire 1 M Add0~7 $end
$var wire 1 N Add0~8_combout $end
$var wire 1 O Add0~9 $end
$var wire 1 P Add0~11 $end
$var wire 1 Q Add0~13 $end
$var wire 1 R Add0~14_combout $end
$var wire 1 S Add0~27 $end
$var wire 1 T Add0~28_combout $end
$var wire 1 U Cont~4_combout $end
$var wire 1 V Add0~29 $end
$var wire 1 W Add0~30_combout $end
$var wire 1 X Cont~5_combout $end
$var wire 1 Y Add0~31 $end
$var wire 1 Z Add0~32_combout $end
$var wire 1 [ Add0~33 $end
$var wire 1 \ Add0~35 $end
$var wire 1 ] Add0~36_combout $end
$var wire 1 ^ Add0~37 $end
$var wire 1 _ Add0~38_combout $end
$var wire 1 ` Cont~7_combout $end
$var wire 1 a Add0~39 $end
$var wire 1 b Add0~40_combout $end
$var wire 1 c Cont~8_combout $end
$var wire 1 d Add0~41 $end
$var wire 1 e Add0~42_combout $end
$var wire 1 f Cont~9_combout $end
$var wire 1 g Add0~43 $end
$var wire 1 h Add0~45 $end
$var wire 1 i Add0~46_combout $end
$var wire 1 j Cont~11_combout $end
$var wire 1 k Equal0~6_combout $end
$var wire 1 l Add0~34_combout $end
$var wire 1 m Cont~6_combout $end
$var wire 1 n Equal0~5_combout $end
$var wire 1 o Equal0~7_combout $end
$var wire 1 p Cont~0_combout $end
$var wire 1 q Add0~15 $end
$var wire 1 r Add0~17 $end
$var wire 1 s Add0~18_combout $end
$var wire 1 t Add0~19 $end
$var wire 1 u Add0~21 $end
$var wire 1 v Add0~22_combout $end
$var wire 1 w Add0~23 $end
$var wire 1 x Add0~24_combout $end
$var wire 1 y Cont~2_combout $end
$var wire 1 z Add0~25 $end
$var wire 1 { Add0~26_combout $end
$var wire 1 | Cont~3_combout $end
$var wire 1 } Equal0~3_combout $end
$var wire 1 ~ Add0~20_combout $end
$var wire 1 !! Equal0~0_combout $end
$var wire 1 "! Equal0~4_combout $end
$var wire 1 #! Add0~47 $end
$var wire 1 $! Add0~49 $end
$var wire 1 %! Add0~50_combout $end
$var wire 1 &! Cont~12_combout $end
$var wire 1 '! Add0~51 $end
$var wire 1 (! Add0~53 $end
$var wire 1 )! Add0~54_combout $end
$var wire 1 *! Add0~55 $end
$var wire 1 +! Add0~57 $end
$var wire 1 ,! Add0~58_combout $end
$var wire 1 -! Add0~59 $end
$var wire 1 .! Add0~60_combout $end
$var wire 1 /! Add0~52_combout $end
$var wire 1 0! Add0~48_combout $end
$var wire 1 1! Equal0~8_combout $end
$var wire 1 2! Add0~56_combout $end
$var wire 1 3! Equal0~9_combout $end
$var wire 1 4! Equal0~10_combout $end
$var wire 1 5! state~0_combout $end
$var wire 1 6! state~regout $end
$var wire 1 7! Cont [31] $end
$var wire 1 8! Cont [30] $end
$var wire 1 9! Cont [29] $end
$var wire 1 :! Cont [28] $end
$var wire 1 ;! Cont [27] $end
$var wire 1 <! Cont [26] $end
$var wire 1 =! Cont [25] $end
$var wire 1 >! Cont [24] $end
$var wire 1 ?! Cont [23] $end
$var wire 1 @! Cont [22] $end
$var wire 1 A! Cont [21] $end
$var wire 1 B! Cont [20] $end
$var wire 1 C! Cont [19] $end
$var wire 1 D! Cont [18] $end
$var wire 1 E! Cont [17] $end
$var wire 1 F! Cont [16] $end
$var wire 1 G! Cont [15] $end
$var wire 1 H! Cont [14] $end
$var wire 1 I! Cont [13] $end
$var wire 1 J! Cont [12] $end
$var wire 1 K! Cont [11] $end
$var wire 1 L! Cont [10] $end
$var wire 1 M! Cont [9] $end
$var wire 1 N! Cont [8] $end
$var wire 1 O! Cont [7] $end
$var wire 1 P! Cont [6] $end
$var wire 1 Q! Cont [5] $end
$var wire 1 R! Cont [4] $end
$var wire 1 S! Cont [3] $end
$var wire 1 T! Cont [2] $end
$var wire 1 U! Cont [1] $end
$var wire 1 V! Cont [0] $end
$upscope $end
$upscope $end
$enddefinitions $end
#0
$dumpvars
0!
x3
02
x1
00
x/
0.
x-
0,
x+
0*
x)
0(
x'
0&
x%
0$
x#
0"
04
15
x6
17
18
19
x:
x;
x<
x=
x>
x?
x@
xA
xB
xC
0D
xE
xF
xG
xH
xI
xJ
xK
xL
xM
xN
xO
xP
xQ
xR
xS
xT
xU
xV
xW
xX
xY
xZ
x[
x\
x]
x^
x_
x`
xa
xb
xc
xd
xe
xf
xg
xh
xi
xj
xk
xl
xm
xn
xo
xp
xq
xr
xs
xt
xu
xv
xw
xx
xy
xz
x{
x|
x}
x~
x!!
x"!
x#!
x$!
x%!
x&!
x'!
x(!
x)!
x*!
x+!
x,!
x-!
x.!
x/!
x0!
x1!
x2!
x3!
x4!
x5!
06!
0V!
0U!
0T!
0S!
0R!
0Q!
0P!
0O!
0N!
0M!
0L!
0K!
0J!
0I!
0H!
0G!
0F!
0E!
0D!
0C!
0B!
0A!
0@!
0?!
0>!
0=!
0<!
0;!
0:!
09!
08!
07!
$end
#118
0E
#459
0k
#462
0}
#467
0n
#700
1*!
0^
0[
#706
0J
#707
0O
0o
#710
1H
#711
0?
1-!
1w
1t
#732
0A
#745
0r
#746
0+!
0$!
0(!
0u
1M
#747
1P
0Q
#749
0F
#773
1:
#799
01!
#850
1S
#851
1g
#881
13!
#885
1'!
1a
#886
0d
#887
0V
#890
0z
#933
1\
0h
#942
1Y
#985
1q
#990
0"!
#1023
1#!
#1110
0l
0_
02!
#1116
0K
#1117
0;
#1120
0I
#1121
0~
0x
0.!
0@
#1155
0s
#1156
0N
0v
0)!
0%!
0,!
#1157
0R
0<
1L
#1158
1!!
#1159
0G
#1260
0T
#1261
0>
#1295
0b
0/!
#1296
0e
#1297
0W
#1300
0{
#1327
04!
#1343
0i
0]
#1352
0Z
#1395
0=
#1433
00!
#1475
05!
#1693
0m
#1741
1B
#1744
0&!
#1814
0`
#1841
0C
#1881
0j
0c
#1885
0f
#1973
0X
#2070
0y
#2132
0p
#2215
0U
#2280
0|
#5000
1!
#5221
0#
0%
#5515
0)
#5525
0'
#5707
0+
#5999
1D
#6117
1E
#6190
01
#6193
0-
#6203
0/
#6220
03
#7940
1V!
#8689
1F
#8713
0:
#9097
0L
#9099
1G
#9428
0B
#10000
0!
#10999
0D
#11117
0E
#15000
1!
#15999
1D
#16117
1E
#17940
0V!
1U!
#18650
0H
#18677
0G
#18689
0F
#18713
1:
#18760
1H
#19099
1G
#19428
1B
#20000
0!
#20999
0D
#21117
0E
#25000
1!
#25999
1D
#26117
1E
#27940
1V!
#28689
1F
#28713
0:
#28760
0H
#29099
0G
#29170
1I
#29428
0B
#30000
0!
#30999
0D
#31117
0E
#35000
1!
#35999
1D
#36117
1E
#37940
0V!
0U!
1T!
#38646
1J
#38650
1H
#38677
1G
#38689
0F
#38713
1:
#38721
0J
#39099
0G
#39428
1B
#40000
0!
#40999
0D
#41117
0E
#45000
1!
#45999
1D
#46117
1E
#47940
1V!
#48689
1F
#48713
0:
#49099
1G
#49428
0B
#50000
0!
#50999
0D
#51117
0E
#55000
1!
#55999
1D
#56117
1E
#57940
0V!
1U!
#58650
0H
#58677
0G
#58689
0F
#58713
1:
#58721
1J
#58760
1H
#58831
0J
#59099
1G
#59428
1B
#60000
0!
#60999
0D
#61117
0E
#65000
1!
#65999
1D
#66117
1E
#67940
1V!
#68689
1F
#68713
0:
#68760
0H
#68831
1J
#69099
0G
#69170
0I
#69241
1K
#69428
0B
#70000
0!
#70999
0D
#71117
0E
#75000
1!
#75999
1D
#76117
1E
#77940
0V!
0U!
0T!
1S!
#78646
0J
#78650
1H
#78677
1G
#78689
0F
#78713
1:
#79099
0G
#79428
1B
#80000
0!
#80999
0D
#81117
0E
#85000
1!
#85999
1D
#86117
1E
#87940
1V!
#88689
1F
#88713
0:
#89099
1G
#89428
0B
#90000
0!
#90999
0D
#91117
0E
#95000
1!
#95999
1D
#96117
1E
#97940
0V!
1U!
#98650
0H
#98677
0G
#98689
0F
#98713
1:
#98760
1H
#99099
1G
#99428
1B
#100000
0!
#100999
0D
#101117
0E
#105000
1!
#105999
1D
#106117
1E
#107940
1V!
#108689
1F
#108713
0:
#108760
0H
#109099
0G
#109170
1I
#109428
0B
#110000
0!
#110999
0D
#111117
0E
#115000
1!
#115999
1D
#116117
1E
#117940
0V!
0U!
1T!
#118646
1J
#118650
1H
#118677
1G
#118689
0F
#118713
1:
#118717
0M
#118721
0J
#118792
1M
#119099
0G
#119428
1B
#120000
0!
#120999
0D
#121117
0E
#125000
1!
#125999
1D
#126117
1E
#127940
1V!
#128689
1F
#128713
0:
#129099
1G
#129428
0B
#130000
0!
#130999
0D
#131117
0E
#135000
1!
#135999
1D
#136117
1E
#137940
0V!
1U!
#138650
0H
#138677
0G
#138689
0F
#138713
1:
#138721
1J
#138760
1H
#138792
0M
#138831
0J
#138902
1M
#139099
1G
#139428
1B
#140000
0!
#140999
0D
#141117
0E
#145000
1!
#145999
1D
#146117
1E
#147940
1V!
#148689
1F
#148713
0:
#148760
0H
#148831
1J
#148902
0M
#149099
0G
#149170
0I
#149241
0K
#149312
1N
#149428
0B
#150000
0!
#150999
0D
#151117
0E
#155000
1!
#155999
1D
#156117
1E
#157940
0V!
0U!
0T!
0S!
1R!
#158646
0J
#158647
1O
#158650
1H
#158674
0N
#158677
1G
#158686
1M
#158689
0F
#158713
1:
#158757
0O
#159096
1N
#159097
1L
#159099
0G
#159428
1B
#160000
0!
#160999
0D
#161117
0E
#165000
1!
#165999
1D
#166117
1E
#167940
1V!
#168689
1F
#168713
0:
#169097
0L
#169099
1G
#169428
0B
#170000
0!
#170999
0D
#171117
0E
#175000
1!
#175999
1D
#176117
1E
#177940
0V!
1U!
#178650
0H
#178677
0G
#178689
0F
#178713
1:
#178760
1H
#179099
1G
#179428
1B
#180000
0!
#180999
0D
#181117
0E
#185000
1!
#185999
1D
#186117
1E
#187940
1V!
#188689
1F
#188713
0:
#188760
0H
#189099
0G
#189170
1I
#189428
0B
#190000
0!
#190999
0D
#191117
0E
#195000
1!
#195999
1D
#196117
1E
#197940
0V!
0U!
1T!
#198646
1J
#198650
1H
#198677
1G
#198689
0F
#198713
1:
#198721
0J
#199099
0G
#199428
1B
#200000
0!
#200999
0D
#201117
0E
#205000
1!
#205999
1D
#206117
1E
#207940
1V!
#208689
1F
#208713
0:
#209099
1G
#209428
0B
#210000
0!
#210999
0D
#211117
0E
#215000
1!
#215999
1D
#216117
1E
#217940
0V!
1U!
#218650
0H
#218677
0G
#218689
0F
#218713
1:
#218721
1J
#218760
1H
#218831
0J
#219099
1G
#219428
1B
#220000
0!
#220999
0D
#221117
0E
#225000
1!
#225999
1D
#226117
1E
#227940
1V!
#228689
1F
#228713
0:
#228760
0H
#228831
1J
#229099
0G
#229170
0I
#229241
1K
#229428
0B
#230000
0!
#230999
0D
#231117
0E
#235000
1!
#235999
1D
#236117
1E
#237940
0V!
0U!
0T!
1S!
#238646
0J
#238650
1H
#238677
1G
#238689
0F
#238713
1:
#239099
0G
#239428
1B
#240000
0!
#240999
0D
#241117
0E
#245000
1!
#245999
1D
#246117
1E
#247940
1V!
#248689
1F
#248713
0:
#249099
1G
#249428
0B
#250000
0!
#250999
0D
#251117
0E
#255000
1!
#255999
1D
#256117
1E
#257940
0V!
1U!
#258650
0H
#258677
0G
#258689
0F
#258713
1:
#258760
1H
#259099
1G
#259428
1B
#260000
0!
#260999
0D
#261117
0E
#265000
1!
#265999
1D
#266117
1E
#267940
1V!
#268689
1F
#268713
0:
#268760
0H
#269099
0G
#269170
1I
#269428
0B
#270000
0!
#270999
0D
#271117
0E
#275000
1!
#275999
1D
#276117
1E
#277940
0V!
0U!
1T!
#278646
1J
#278650
1H
#278677
1G
#278689
0F
#278713
1:
#278717
0M
#278721
0J
#278788
1O
#278792
1M
#278863
0O
#279099
0G
#279428
1B
#280000
0!
#280999
0D
#281117
0E
#285000
1!
#285999
1D
#286117
1E
#287940
1V!
#288689
1F
#288713
0:
#289099
1G
#289428
0B
#290000
0!
#290999
0D
#291117
0E
#295000
1!
#295999
1D
#296117
1E
#297940
0V!
1U!
#298650
0H
#298677
0G
#298689
0F
#298713
1:
#298721
1J
#298760
1H
#298792
0M
#298831
0J
#298863
1O
#298902
1M
#298973
0O
#299099
1G
#299428
1B
#300000
0!
#300999
0D
#301117
0E
#305000
1!
#305999
1D
#306117
1E
#307940
1V!
#308689
1F
#308713
0:
#308760
0H
#308831
1J
#308902
0M
#308973
1O
#309099
0G
#309170
0I
#309241
0K
#309312
0N
#309383
1;
#309428
0B
#310000
0!
#310999
0D
#311117
0E
#315000
1!
#315999
1D
#316117
1E
#317940
1Q!
0V!
0U!
0T!
0S!
0R!
#318646
0J
#318647
0O
#318650
1H
#318674
1N
#318677
1G
#318686
1M
#318689
0F
#318713
1:
#319096
0N
#319097
1L
#319099
0G
#319428
1B
#320000
0!
#320999
0D
#321117
0E
#325000
1!
#325999
1D
#326117
1E
#327940
1V!
#328689
1F
#328713
0:
#329097
0L
#329099
1G
#329428
0B
#330000
0!
#330999
0D
#331117
0E
#335000
1!
#335999
1D
#336117
1E
#337940
0V!
1U!
#338650
0H
#338677
0G
#338689
0F
#338713
1:
#338760
1H
#339099
1G
#339428
1B
#340000
0!
#340999
0D
#341117
0E
#345000
1!
#345999
1D
#346117
1E
#347940
1V!
#348689
1F
#348713
0:
#348760
0H
#349099
0G
#349170
1I
#349428
0B
#350000
0!
#350999
0D
#351117
0E
#355000
1!
#355999
1D
#356117
1E
#357940
0V!
0U!
1T!
#358646
1J
#358650
1H
#358677
1G
#358689
0F
#358713
1:
#358721
0J
#359099
0G
#359428
1B
#360000
0!
#360999
0D
#361117
0E
#365000
1!
#365999
1D
#366117
1E
#367940
1V!
#368689
1F
#368713
0:
#369099
1G
#369428
0B
#370000
0!
#370999
0D
#371117
0E
#375000
1!
#375999
1D
#376117
1E
#377940
0V!
1U!
#378650
0H
#378677
0G
#378689
0F
#378713
1:
#378721
1J
#378760
1H
#378831
0J
#379099
1G
#379428
1B
#380000
0!
#380999
0D
#381117
0E
#385000
1!
#385999
1D
#386117
1E
#387940
1V!
#388689
1F
#388713
0:
#388760
0H
#388831
1J
#389099
0G
#389170
0I
#389241
1K
#389428
0B
#390000
0!
#390999
0D
#391117
0E
#395000
1!
#395999
1D
#396117
1E
#397940
0V!
0U!
0T!
1S!
#398646
0J
#398650
1H
#398677
1G
#398689
0F
#398713
1:
#399099
0G
#399428
1B
#400000
0!
#400999
0D
#401117
0E
#405000
1!
#405999
1D
#406117
1E
#407940
1V!
#408689
1F
#408713
0:
#409099
1G
#409428
0B
#410000
0!
#410999
0D
#411117
0E
#415000
1!
#415999
1D
#416117
1E
#417940
0V!
1U!
#418650
0H
#418677
0G
#418689
0F
#418713
1:
#418760
1H
#419099
1G
#419428
1B
#420000
0!
#420999
0D
#421117
0E
#425000
1!
#425999
1D
#426117
1E
#427940
1V!
#428689
1F
#428713
0:
#428760
0H
#429099
0G
#429170
1I
#429428
0B
#430000
0!
#430999
0D
#431117
0E
#435000
1!
#435999
1D
#436117
1E
#437940
0V!
0U!
1T!
#438646
1J
#438650
1H
#438677
1G
#438689
0F
#438713
1:
#438717
0M
#438721
0J
#438792
1M
#439099
0G
#439428
1B
#440000
0!
#440999
0D
#441117
0E
#445000
1!
#445999
1D
#446117
1E
#447940
1V!
#448689
1F
#448713
0:
#449099
1G
#449428
0B
#450000
0!
#450999
0D
#451117
0E
#455000
1!
#455999
1D
#456117
1E
#457940
0V!
1U!
#458650
0H
#458677
0G
#458689
0F
#458713
1:
#458721
1J
#458760
1H
#458792
0M
#458831
0J
#458902
1M
#459099
1G
#459428
1B
#460000
0!
#460999
0D
#461117
0E
#465000
1!
#465999
1D
#466117
1E
#467940
1V!
#468689
1F
#468713
0:
#468760
0H
#468831
1J
#468902
0M
#469099
0G
#469170
0I
#469241
0K
#469312
1N
#469428
0B
#470000
0!
#470999
0D
#471117
0E
#475000
1!
#475999
1D
#476117
1E
#477940
0V!
0U!
0T!
0S!
1R!
#478646
0J
#478647
1O
#478650
1H
#478674
0N
#478677
1G
#478686
1M
#478689
0F
#478713
1:
#478718
0P
#478757
0O
#478828
1P
#479096
1N
#479097
1L
#479099
0G
#479428
1B
#480000
0!
#480999
0D
#481117
0E
#485000
1!
#485999
1D
#486117
1E
#487940
1V!
#488689
1F
#488713
0:
#489097
0L
#489099
1G
#489428
0B
#490000
0!
#490999
0D
#491117
0E
#495000
1!
#495999
1D
#496117
1E
#497940
0V!
1U!
#498650
0H
#498677
0G
#498689
0F
#498713
1:
#498760
1H
#499099
1G
#499428
1B
#500000
0!
#500999
0D
#501117
0E
#505000
1!
#505999
1D
#506117
1E
#507940
1V!
#508689
1F
#508713
0:
#508760
0H
#509099
0G
#509170
1I
#509428
0B
#510000
0!
#510999
0D
#511117
0E
#515000
1!
#515999
1D
#516117
1E
#517940
0V!
0U!
1T!
#518646
1J
#518650
1H
#518677
1G
#518689
0F
#518713
1:
#518721
0J
#519099
0G
#519428
1B
#520000
0!
#520999
0D
#521117
0E
#525000
1!
#525999
1D
#526117
1E
#527940
1V!
#528689
1F
#528713
0:
#529099
1G
#529428
0B
#530000
0!
#530999
0D
#531117
0E
#535000
1!
#535999
1D
#536117
1E
#537940
0V!
1U!
#538650
0H
#538677
0G
#538689
0F
#538713
1:
#538721
1J
#538760
1H
#538831
0J
#539099
1G
#539428
1B
#540000
0!
#540999
0D
#541117
0E
#545000
1!
#545999
1D
#546117
1E
#547940
1V!
#548689
1F
#548713
0:
#548760
0H
#548831
1J
#549099
0G
#549170
0I
#549241
1K
#549428
0B
#550000
0!
#550999
0D
#551117
0E
#555000
1!
#555999
1D
#556117
1E
#557940
0V!
0U!
0T!
1S!
#558646
0J
#558650
1H
#558677
1G
#558689
0F
#558713
1:
#559099
0G
#559428
1B
#560000
0!
#560999
0D
#561117
0E
#565000
1!
#565999
1D
#566117
1E
#567940
1V!
#568689
1F
#568713
0:
#569099
1G
#569428
0B
#570000
0!
#570999
0D
#571117
0E
#575000
1!
#575999
1D
#576117
1E
#577940
0V!
1U!
#578650
0H
#578677
0G
#578689
0F
#578713
1:
#578760
1H
#579099
1G
#579428
1B
#580000
0!
#580999
0D
#581117
0E
#585000
1!
#585999
1D
#586117
1E
#587940
1V!
#588689
1F
#588713
0:
#588760
0H
#589099
0G
#589170
1I
#589428
0B
#590000
0!
#590999
0D
#591117
0E
#595000
1!
#595999
1D
#596117
1E
#597940
0V!
0U!
1T!
#598646
1J
#598650
1H
#598677
1G
#598689
0F
#598713
1:
#598717
0M
#598721
0J
#598788
1O
#598792
1M
#598859
0P
#598863
0O
#598934
1P
#599099
0G
#599428
1B
#600000
0!
#600999
0D
#601117
0E
#605000
1!
#605999
1D
#606117
1E
#607940
1V!
#608689
1F
#608713
0:
#609099
1G
#609428
0B
#610000
0!
#610999
0D
#611117
0E
#615000
1!
#615999
1D
#616117
1E
#617940
0V!
1U!
#618650
0H
#618677
0G
#618689
0F
#618713
1:
#618721
1J
#618760
1H
#618792
0M
#618831
0J
#618863
1O
#618902
1M
#618934
0P
#618973
0O
#619044
1P
#619099
1G
#619428
1B
#620000
0!
#620999
0D
#621117
0E
#625000
1!
#625999
1D
#626117
1E
#627940
1V!
#628689
1F
#628713
0:
#628760
0H
#628831
1J
#628902
0M
#628973
1O
#629044
0P
#629099
0G
#629170
0I
#629241
0K
#629312
0N
#629383
0;
#629428
0B
#629454
1<
#630000
0!
#630999
0D
#631117
0E
#635000
1!
#635999
1D
#636117
1E
#637940
1P!
0Q!
0V!
0U!
0T!
0S!
0R!
#638646
0J
#638647
0O
#638650
1H
#638674
1N
#638677
1G
#638686
1M
#638687
1Q
1P
#638689
0F
#638713
1:
#638758
0Q
#639096
0N
#639097
1L
#639099
0G
#639428
1B
#640000
0!
#640999
0D
#641117
0E
#645000
1!
#645999
1D
#646117
1E
#647940
1V!
#648689
1F
#648713
0:
#649097
0L
#649099
1G
#649428
0B
#650000
0!
#650999
0D
#651117
0E
#655000
1!
#655999
1D
#656117
1E
#657940
0V!
1U!
#658650
0H
#658677
0G
#658689
0F
#658713
1:
#658760
1H
#659099
1G
#659428
1B
#660000
0!
#660999
0D
#661117
0E
#665000
1!
#665999
1D
#666117
1E
#667940
1V!
#668689
1F
#668713
0:
#668760
0H
#669099
0G
#669170
1I
#669428
0B
#670000
0!
#670999
0D
#671117
0E
#675000
1!
#675999
1D
#676117
1E
#677940
0V!
0U!
1T!
#678646
1J
#678650
1H
#678677
1G
#678689
0F
#678713
1:
#678721
0J
#679099
0G
#679428
1B
#680000
0!
#680999
0D
#681117
0E
#685000
1!
#685999
1D
#686117
1E
#687940
1V!
#688689
1F
#688713
0:
#689099
1G
#689428
0B
#690000
0!
#690999
0D
#691117
0E
#695000
1!
#695999
1D
#696117
1E
#697940
0V!
1U!
#698650
0H
#698677
0G
#698689
0F
#698713
1:
#698721
1J
#698760
1H
#698831
0J
#699099
1G
#699428
1B
#700000
0!
#700999
0D
#701117
0E
#705000
1!
#705999
1D
#706117
1E
#707940
1V!
#708689
1F
#708713
0:
#708760
0H
#708831
1J
#709099
0G
#709170
0I
#709241
1K
#709428
0B
#710000
0!
#710999
0D
#711117
0E
#715000
1!
#715999
1D
#716117
1E
#717940
0V!
0U!
0T!
1S!
#718646
0J
#718650
1H
#718677
1G
#718689
0F
#718713
1:
#719099
0G
#719428
1B
#720000
0!
#720999
0D
#721117
0E
#725000
1!
#725999
1D
#726117
1E
#727940
1V!
#728689
1F
#728713
0:
#729099
1G
#729428
0B
#730000
0!
#730999
0D
#731117
0E
#735000
1!
#735999
1D
#736117
1E
#737940
0V!
1U!
#738650
0H
#738677
0G
#738689
0F
#738713
1:
#738760
1H
#739099
1G
#739428
1B
#740000
0!
#740999
0D
#741117
0E
#745000
1!
#745999
1D
#746117
1E
#747940
1V!
#748689
1F
#748713
0:
#748760
0H
#749099
0G
#749170
1I
#749428
0B
#750000
0!
#750999
0D
#751117
0E
#755000
1!
#755999
1D
#756117
1E
#757940
0V!
0U!
1T!
#758646
1J
#758650
1H
#758677
1G
#758689
0F
#758713
1:
#758717
0M
#758721
0J
#758792
1M
#759099
0G
#759428
1B
#760000
0!
#760999
0D
#761117
0E
#765000
1!
#765999
1D
#766117
1E
#767940
1V!
#768689
1F
#768713
0:
#769099
1G
#769428
0B
#770000
0!
#770999
0D
#771117
0E
#775000
1!
#775999
1D
#776117
1E
#777940
0V!
1U!
#778650
0H
#778677
0G
#778689
0F
#778713
1:
#778721
1J
#778760
1H
#778792
0M
#778831
0J
#778902
1M
#779099
1G
#779428
1B
#780000
0!
#780999
0D
#781117
0E
#785000
1!
#785999
1D
#786117
1E
#787940
1V!
#788689
1F
#788713
0:
#788760
0H
#788831
1J
#788902
0M
#789099
0G
#789170
0I
#789241
0K
#789312
1N
#789428
0B
#790000
0!
#790999
0D
#791117
0E
#795000
1!
#795999
1D
#796117
1E
#797940
0V!
0U!
0T!
0S!
1R!
#798646
0J
#798647
1O
#798650
1H
#798674
0N
#798677
1G
#798686
1M
#798689
0F
#798713
1:
#798757
0O
#799096
1N
#799097
1L
#799099
0G
#799428
1B
#800000
0!
#800999
0D
#801117
0E
#805000
1!
#805999
1D
#806117
1E
#807940
1V!
#808689
1F
#808713
0:
#809097
0L
#809099
1G
#809428
0B
#810000
0!
#810999
0D
#811117
0E
#815000
1!
#815999
1D
#816117
1E
#817940
0V!
1U!
#818650
0H
#818677
0G
#818689
0F
#818713
1:
#818760
1H
#819099
1G
#819428
1B
#820000
0!
#820999
0D
#821117
0E
#825000
1!
#825999
1D
#826117
1E
#827940
1V!
#828689
1F
#828713
0:
#828760
0H
#829099
0G
#829170
1I
#829428
0B
#830000
0!
#830999
0D
#831117
0E
#835000
1!
#835999
1D
#836117
1E
#837940
0V!
0U!
1T!
#838646
1J
#838650
1H
#838677
1G
#838689
0F
#838713
1:
#838721
0J
#839099
0G
#839428
1B
#840000
0!
#840999
0D
#841117
0E
#845000
1!
#845999
1D
#846117
1E
#847940
1V!
#848689
1F
#848713
0:
#849099
1G
#849428
0B
#850000
0!
#850999
0D
#851117
0E
#855000
1!
#855999
1D
#856117
1E
#857940
0V!
1U!
#858650
0H
#858677
0G
#858689
0F
#858713
1:
#858721
1J
#858760
1H
#858831
0J
#859099
1G
#859428
1B
#860000
0!
#860999
0D
#861117
0E
#865000
1!
#865999
1D
#866117
1E
#867940
1V!
#868689
1F
#868713
0:
#868760
0H
#868831
1J
#869099
0G
#869170
0I
#869241
1K
#869428
0B
#870000
0!
#870999
0D
#871117
0E
#875000
1!
#875999
1D
#876117
1E
#877940
0V!
0U!
0T!
1S!
#878646
0J
#878650
1H
#878677
1G
#878689
0F
#878713
1:
#879099
0G
#879428
1B
#880000
0!
#880999
0D
#881117
0E
#885000
1!
#885999
1D
#886117
1E
#887940
1V!
#888689
1F
#888713
0:
#889099
1G
#889428
0B
#890000
0!
#890999
0D
#891117
0E
#895000
1!
#895999
1D
#896117
1E
#897940
0V!
1U!
#898650
0H
#898677
0G
#898689
0F
#898713
1:
#898760
1H
#899099
1G
#899428
1B
#900000
0!
#900999
0D
#901117
0E
#905000
1!
#905999
1D
#906117
1E
#907940
1V!
#908689
1F
#908713
0:
#908760
0H
#909099
0G
#909170
1I
#909428
0B
#910000
0!
#910999
0D
#911117
0E
#915000
1!
#915999
1D
#916117
1E
#917940
0V!
0U!
1T!
#918646
1J
#918650
1H
#918677
1G
#918689
0F
#918713
1:
#918717
0M
#918721
0J
#918788
1O
#918792
1M
#918863
0O
#919099
0G
#919428
1B
#920000
0!
#920999
0D
#921117
0E
#925000
1!
#925999
1D
#926117
1E
#927940
1V!
#928689
1F
#928713
0:
#929099
1G
#929428
0B
#930000
0!
#930999
0D
#931117
0E
#935000
1!
#935999
1D
#936117
1E
#937940
0V!
1U!
#938650
0H
#938677
0G
#938689
0F
#938713
1:
#938721
1J
#938760
1H
#938792
0M
#938831
0J
#938863
1O
#938902
1M
#938973
0O
#939099
1G
#939428
1B
#940000
0!
#940999
0D
#941117
0E
#945000
1!
#945999
1D
#946117
1E
#947940
1V!
#948689
1F
#948713
0:
#948760
0H
#948831
1J
#948902
0M
#948973
1O
#949099
0G
#949170
0I
#949241
0K
#949312
0N
#949383
1;
#949428
0B
#950000
0!
#950999
0D
#951117
0E
#955000
1!
#955999
1D
#956117
1E
#957940
1Q!
0V!
0U!
0T!
0S!
0R!
#958646
0J
#958647
0O
#958650
1H
#958674
1N
#958677
1G
#958686
1M
#958689
0F
#958713
1:
#959096
0N
#959097
1L
#959099
0G
#959428
1B
#960000
0!
#960999
0D
#961117
0E
#965000
1!
#965999
1D
#966117
1E
#967940
1V!
#968689
1F
#968713
0:
#969097
0L
#969099
1G
#969428
0B
#970000
0!
#970999
0D
#971117
0E
#975000
1!
#975999
1D
#976117
1E
#977940
0V!
1U!
#978650
0H
#978677
0G
#978689
0F
#978713
1:
#978760
1H
#979099
1G
#979428
1B
#980000
0!
#980999
0D
#981117
0E
#985000
1!
#985999
1D
#986117
1E
#987940
1V!
#988689
1F
#988713
0:
#988760
0H
#989099
0G
#989170
1I
#989428
0B
#990000
0!
#990999
0D
#991117
0E
#995000
1!
#995999
1D
#996117
1E
#997940
0V!
0U!
1T!
#998646
1J
#998650
1H
#998677
1G
#998689
0F
#998713
1:
#998721
0J
#999099
0G
#999428
1B
