main_proj/simulation/qsim/knight_rider.msim.vcd
$comment
	File created using the following command:
		vcd file knight_rider.msim.vcd -direction
$end
$date
	Fri Jan 06 21:40:39 2023
$end
$version
	ModelSim Version 10.1d
$end
$timescale
	1ps
$end
$scope module knight_rider_vlg_vec_tst $end
$var reg 1 ! CLOCK_50 $end
$var wire 1 " clk $end
$var wire 1 # sampler $end
$scope module i1 $end
$var wire 1 $ gnd $end
$var wire 1 % vcc $end
$var wire 1 & unknown $end
$var tri1 1 ' devclrn $end
$var tri1 1 ( devpor $end
$var tri1 1 ) devoe $end
$var wire 1 * CLOCK_50~combout $end
$var wire 1 + clk~0_combout $end
$var wire 1 , clk~reg0_regout $end
$upscope $end
$upscope $end
$enddefinitions $end
#0
$dumpvars
0!
x"
x#
0$
1%
x&
1'
1(
1)
0*
1+
0,
$end
#3756
0"
#5000
1!
0#
#5850
1*
#7819
1,
#8142
0+
#10000
0!
1#
#10850
0*
#11575
1"
#15000
1!
0#
#15850
1*
#17819
0,
#18142
1+
#20000
0!
1#
#20850
0*
#21575
0"
#25000
1!
0#
#25850
1*
#27819
1,
#28142
0+
#30000
0!
1#
#30850
0*
#31575
1"
#35000
1!
0#
#35850
1*
#37819
0,
#38142
1+
#40000
0!
1#
#40850
0*
#41575
0"
#45000
1!
0#
#45850
1*
#47819
1,
#48142
0+
#50000
0!
1#
#50850
0*
#51575
1"
#55000
1!
0#
#55850
1*
#57819
0,
#58142
1+
#60000
0!
1#
#60850
0*
#61575
0"
#65000
1!
0#
#65850
1*
#67819
1,
#68142
0+
#70000
0!
1#
#70850
0*
#71575
1"
#75000
1!
0#
#75850
1*
#77819
0,
#78142
1+
#80000
0!
1#
#80850
0*
#81575
0"
#85000
1!
0#
#85850
1*
#87819
1,
#88142
0+
#90000
0!
1#
#90850
0*
#91575
1"
#95000
1!
0#
#95850
1*
#97819
0,
#98142
1+
#100000
0!
1#
#100850
0*
#101575
0"
#105000
1!
0#
#105850
1*
#107819
1,
#108142
0+
#110000
0!
1#
#110850
0*
#111575
1"
#115000
1!
0#
#115850
1*
#117819
0,
#118142
1+
#120000
0!
1#
#120850
0*
#121575
0"
#125000
1!
0#
#125850
1*
#127819
1,
#128142
0+
#130000
0!
1#
#130850
0*
#131575
1"
#135000
1!
0#
#135850
1*
#137819
0,
#138142
1+
#140000
0!
1#
#140850
0*
#141575
0"
#145000
1!
0#
#145850
1*
#147819
1,
#148142
0+
#150000
0!
1#
#150850
0*
#151575
1"
#155000
1!
0#
#155850
1*
#157819
0,
#158142
1+
#160000
0!
1#
#160850
0*
#161575
0"
#165000
1!
0#
#165850
1*
#167819
1,
#168142
0+
#170000
0!
1#
#170850
0*
#171575
1"
#175000
1!
0#
#175850
1*
#177819
0,
#178142
1+
#180000
0!
1#
#180850
0*
#181575
0"
#185000
1!
0#
#185850
1*
#187819
1,
#188142
0+
#190000
0!
1#
#190850
0*
#191575
1"
#195000
1!
0#
#195850
1*
#197819
0,
#198142
1+
#200000
0!
1#
#200850
0*
#201575
0"
#205000
1!
0#
#205850
1*
#207819
1,
#208142
0+
#210000
0!
1#
#210850
0*
#211575
1"
#215000
1!
0#
#215850
1*
#217819
0,
#218142
1+
#220000
0!
1#
#220850
0*
#221575
0"
#225000
1!
0#
#225850
1*
#227819
1,
#228142
0+
#230000
0!
1#
#230850
0*
#231575
1"
#235000
1!
0#
#235850
1*
#237819
0,
#238142
1+
#240000
0!
1#
#240850
0*
#241575
0"
#245000
1!
0#
#245850
1*
#247819
1,
#248142
0+
#250000
0!
1#
#250850
0*
#251575
1"
#255000
1!
0#
#255850
1*
#257819
0,
#258142
1+
#260000
0!
1#
#260850
0*
#261575
0"
#265000
1!
0#
#265850
1*
#267819
1,
#268142
0+
#270000
0!
1#
#270850
0*
#271575
1"
#275000
1!
0#
#275850
1*
#277819
0,
#278142
1+
#280000
0!
1#
#280850
0*
#281575
0"
#285000
1!
0#
#285850
1*
#287819
1,
#288142
0+
#290000
0!
1#
#290850
0*
#291575
1"
#295000
1!
0#
#295850
1*
#297819
0,
#298142
1+
#300000
0!
1#
#300850
0*
#301575
0"
#305000
1!
0#
#305850
1*
#307819
1,
#308142
0+
#310000
0!
1#
#310850
0*
#311575
1"
#315000
1!
0#
#315850
1*
#317819
0,
#318142
1+
#320000
0!
1#
#320850
0*
#321575
0"
#325000
1!
0#
#325850
1*
#327819
1,
#328142
0+
#330000
0!
1#
#330850
0*
#331575
1"
#335000
1!
0#
#335850
1*
#337819
0,
#338142
1+
#340000
0!
1#
#340850
0*
#341575
0"
#345000
1!
0#
#345850
1*
#347819
1,
#348142
0+
#350000
0!
1#
#350850
0*
#351575
1"
#355000
1!
0#
#355850
1*
#357819
0,
#358142
1+
#360000
0!
1#
#360850
0*
#361575
0"
#365000
1!
0#
#365850
1*
#367819
1,
#368142
0+
#370000
0!
1#
#370850
0*
#371575
1"
#375000
1!
0#
#375850
1*
#377819
0,
#378142
1+
#380000
0!
1#
#380850
0*
#381575
0"
#385000
1!
0#
#385850
1*
#387819
1,
#388142
0+
#390000
0!
1#
#390850
0*
#391575
1"
#395000
1!
0#
#395850
1*
#397819
0,
#398142
1+
#400000
0!
1#
#400850
0*
#401575
0"
#405000
1!
0#
#405850
1*
#407819
1,
#408142
0+
#410000
0!
1#
#410850
0*
#411575
1"
#415000
1!
0#
#415850
1*
#417819
0,
#418142
1+
#420000
0!
1#
#420850
0*
#421575
0"
#425000
1!
0#
#425850
1*
#427819
1,
#428142
0+
#430000
0!
1#
#430850
0*
#431575
1"
#435000
1!
0#
#435850
1*
#437819
0,
#438142
1+
#440000
0!
1#
#440850
0*
#441575
0"
#445000
1!
0#
#445850
1*
#447819
1,
#448142
0+
#450000
0!
1#
#450850
0*
#451575
1"
#455000
1!
0#
#455850
1*
#457819
0,
#458142
1+
#460000
0!
1#
#460850
0*
#461575
0"
#465000
1!
0#
#465850
1*
#467819
1,
#468142
0+
#470000
0!
1#
#470850
0*
#471575
1"
#475000
1!
0#
#475850
1*
#477819
0,
#478142
1+
#480000
0!
1#
#480850
0*
#481575
0"
#485000
1!
0#
#485850
1*
#487819
1,
#488142
0+
#490000
0!
1#
#490850
0*
#491575
1"
#495000
1!
0#
#495850
1*
#497819
0,
#498142
1+
#500000
0!
1#
#500850
0*
#501575
0"
#505000
1!
0#
#505850
1*
#507819
1,
#508142
0+
#510000
0!
1#
#510850
0*
#511575
1"
#515000
1!
0#
#515850
1*
#517819
0,
#518142
1+
#520000
0!
1#
#520850
0*
#521575
0"
#525000
1!
0#
#525850
1*
#527819
1,
#528142
0+
#530000
0!
1#
#530850
0*
#531575
1"
#535000
1!
0#
#535850
1*
#537819
0,
#538142
1+
#540000
0!
1#
#540850
0*
#541575
0"
#545000
1!
0#
#545850
1*
#547819
1,
#548142
0+
#550000
0!
1#
#550850
0*
#551575
1"
#555000
1!
0#
#555850
1*
#557819
0,
#558142
1+
#560000
0!
1#
#560850
0*
#561575
0"
#565000
1!
0#
#565850
1*
#567819
1,
#568142
0+
#570000
0!
1#
#570850
0*
#571575
1"
#575000
1!
0#
#575850
1*
#577819
0,
#578142
1+
#580000
0!
1#
#580850
0*
#581575
0"
#585000
1!
0#
#585850
1*
#587819
1,
#588142
0+
#590000
0!
1#
#590850
0*
#591575
1"
#595000
1!
0#
#595850
1*
#597819
0,
#598142
1+
#600000
0!
1#
#600850
0*
#601575
0"
#605000
1!
0#
#605850
1*
#607819
1,
#608142
0+
#610000
0!
1#
#610850
0*
#611575
1"
#615000
1!
0#
#615850
1*
#617819
0,
#618142
1+
#620000
0!
1#
#620850
0*
#621575
0"
#625000
1!
0#
#625850
1*
#627819
1,
#628142
0+
#630000
0!
1#
#630850
0*
#631575
1"
#635000
1!
0#
#635850
1*
#637819
0,
#638142
1+
#640000
0!
1#
#640850
0*
#641575
0"
#645000
1!
0#
#645850
1*
#647819
1,
#648142
0+
#650000
0!
1#
#650850
0*
#651575
1"
#655000
1!
0#
#655850
1*
#657819
0,
#658142
1+
#660000
0!
1#
#660850
0*
#661575
0"
#665000
1!
0#
#665850
1*
#667819
1,
#668142
0+
#670000
0!
1#
#670850
0*
#671575
1"
#675000
1!
0#
#675850
1*
#677819
0,
#678142
1+
#680000
0!
1#
#680850
0*
#681575
0"
#685000
1!
0#
#685850
1*
#687819
1,
#688142
0+
#690000
0!
1#
#690850
0*
#691575
1"
#695000
1!
0#
#695850
1*
#697819
0,
#698142
1+
#700000
0!
1#
#700850
0*
#701575
0"
#705000
1!
0#
#705850
1*
#707819
1,
#708142
0+
#710000
0!
1#
#710850
0*
#711575
1"
#715000
1!
0#
#715850
1*
#717819
0,
#718142
1+
#720000
0!
1#
#720850
0*
#721575
0"
#725000
1!
0#
#725850
1*
#727819
1,
#728142
0+
#730000
0!
1#
#730850
0*
#731575
1"
#735000
1!
0#
#735850
1*
#737819
0,
#738142
1+
#740000
0!
1#
#740850
0*
#741575
0"
#745000
1!
0#
#745850
1*
#747819
1,
#748142
0+
#750000
0!
1#
#750850
0*
#751575
1"
#755000
1!
0#
#755850
1*
#757819
0,
#758142
1+
#760000
0!
1#
#760850
0*
#761575
0"
#765000
1!
0#
#765850
1*
#767819
1,
#768142
0+
#770000
0!
1#
#770850
0*
#771575
1"
#775000
1!
0#
#775850
1*
#777819
0,
#778142
1+
#780000
0!
1#
#780850
0*
#781575
0"
#785000
1!
0#
#785850
1*
#787819
1,
#788142
0+
#790000
0!
1#
#790850
0*
#791575
1"
#795000
1!
0#
#795850
1*
#797819
0,
#798142
1+
#800000
0!
1#
#800850
0*
#801575
0"
#805000
1!
0#
#805850
1*
#807819
1,
#808142
0+
#810000
0!
1#
#810850
0*
#811575
1"
#815000
1!
0#
#815850
1*
#817819
0,
#818142
1+
#820000
0!
1#
#820850
0*
#821575
0"
#825000
1!
0#
#825850
1*
#827819
1,
#828142
0+
#830000
0!
1#
#830850
0*
#831575
1"
#835000
1!
0#
#835850
1*
#837819
0,
#838142
1+
#840000
0!
1#
#840850
0*
#841575
0"
#845000
1!
0#
#845850
1*
#847819
1,
#848142
0+
#850000
0!
1#
#850850
0*
#851575
1"
#855000
1!
0#
#855850
1*
#857819
0,
#858142
1+
#860000
0!
1#
#860850
0*
#861575
0"
#865000
1!
0#
#865850
1*
#867819
1,
#868142
0+
#870000
0!
1#
#870850
0*
#871575
1"
#875000
1!
0#
#875850
1*
#877819
0,
#878142
1+
#880000
0!
1#
#880850
0*
#881575
0"
#885000
1!
0#
#885850
1*
#887819
1,
#888142
0+
#890000
0!
1#
#890850
0*
#891575
1"
#895000
1!
0#
#895850
1*
#897819
0,
#898142
1+
#900000
0!
1#
#900850
0*
#901575
0"
#905000
1!
0#
#905850
1*
#907819
1,
#908142
0+
#910000
0!
1#
#910850
0*
#911575
1"
#915000
1!
0#
#915850
1*
#917819
0,
#918142
1+
#920000
0!
1#
#920850
0*
#921575
0"
#925000
1!
0#
#925850
1*
#927819
1,
#928142
0+
#930000
0!
1#
#930850
0*
#931575
1"
#935000
1!
0#
#935850
1*
#937819
0,
#938142
1+
#940000
0!
1#
#940850
0*
#941575
0"
#945000
1!
0#
#945850
1*
#947819
1,
#948142
0+
#950000
0!
1#
#950850
0*
#951575
1"
#955000
1!
0#
#955850
1*
#957819
0,
#958142
1+
#960000
0!
1#
#960850
0*
#961575
0"
#965000
1!
0#
#965850
1*
#967819
1,
#968142
0+
#970000
0!
1#
#970850
0*
#971575
1"
#975000
1!
0#
#975850
1*
#977819
0,
#978142
1+
#980000
0!
1#
#980850
0*
#981575
0"
#985000
1!
0#
#985850
1*
#987819
1,
#988142
0+
#990000
0!
1#
#990850
0*
#991575
1"
#995000
1!
0#
#995850
1*
#997819
0,
#998142
1+
